<?xml version="1.0" encoding="UTF-8"?>
<svg width="48px" height="48px" viewBox="0 0 48 48" version="1.1" xmlns="http://www.w3.org/2000/svg" xmlns:xlink="http://www.w3.org/1999/xlink">
    <title>Artboard</title>
    <defs>
        <radialGradient cx="50%" cy="28.9877429%" fx="50%" fy="28.9877429%" r="71.0122571%" id="radialGradient-1">
            <stop stop-color="#F9F06B" offset="0%"></stop>
            <stop stop-color="#F5C211" offset="100%"></stop>
        </radialGradient>
        <circle id="path-2" cx="24" cy="24" r="14"></circle>
        <filter x="-57.1%" y="-57.1%" width="214.3%" height="214.3%" filterUnits="objectBoundingBox" id="filter-3">
            <feMorphology radius="1" operator="dilate" in="SourceAlpha" result="shadowSpreadOuter1"></feMorphology>
            <feOffset dx="0" dy="0" in="shadowSpreadOuter1" result="shadowOffsetOuter1"></feOffset>
            <feGaussianBlur stdDeviation="5" in="shadowOffsetOuter1" result="shadowBlurOuter1"></feGaussianBlur>
            <feComposite in="shadowBlurOuter1" in2="SourceAlpha" operator="out" result="shadowBlurOuter1"></feComposite>
            <feColorMatrix values="0 0 0 0 0   0 0 0 0 0   0 0 0 0 0  0 0 0 0.30078125 0" type="matrix" in="shadowBlurOuter1"></feColorMatrix>
        </filter>
        <radialGradient cx="50%" cy="28.9877429%" fx="50%" fy="28.9877429%" r="71.0122571%" gradientTransform="translate(0.500000,0.289877),scale(0.944423,1.000000),rotate(90.000000),translate(-0.500000,-0.289877)" id="radialGradient-4">
            <stop stop-color="#F9F06B" offset="0%"></stop>
            <stop stop-color="#F5C211" offset="100%"></stop>
        </radialGradient>
    </defs>
    <g id="Artboard" stroke="none" stroke-width="1" fill="none" fill-rule="evenodd">
        <g id="Oval">
            <use fill="black" fill-opacity="1" filter="url(#filter-3)" xlink:href="#path-2"></use>
            <use stroke="#D48E15" stroke-width="2" fill="url(#radialGradient-1)" fill-rule="evenodd" xlink:href="#path-2"></use>
        </g>
        <path d="M24.0041599,4.20584404 L25.2614365,6.57321793 C24.776155,6.52408558 24.3556558,6.5 24,6.5 C23.6475521,6.5 23.2326969,6.52362204 22.7554951,6.57180474 L22.7554951,6.57180474 L24.0041599,4.20584404 Z" id="Triangle" stroke="#D48E15" stroke-width="3" fill="url(#radialGradient-4)"></path>
        <path d="M37.0025153,8.75702494 L40.1890248,14.7570249 C38.7778505,14.4833776 37.7156807,14.346554 37.0025153,14.346554 C36.2893499,14.346554 35.2338253,14.4833776 33.8359415,14.7570249 L37.0025153,8.75702494 Z" id="Triangle" fill="#D48E15" transform="translate(37.012483, 11.757025) rotate(47.000000) translate(-37.012483, -11.757025) "></path>
        <path d="M37.0025153,33.7570249 L40.1890248,39.7570249 C38.7778505,39.4833776 37.7156807,39.346554 37.0025153,39.346554 C36.2893499,39.346554 35.2338253,39.4833776 33.8359415,39.7570249 L37.0025153,33.7570249 Z" id="Triangle" fill="#D48E15" transform="translate(37.012483, 36.757025) scale(1, -1) rotate(45.000000) translate(-37.012483, -36.757025) "></path>
        <path d="M11.0025153,33.7570249 L14.1890248,39.7570249 C12.7778505,39.4833776 11.7156807,39.346554 11.0025153,39.346554 C10.2893499,39.346554 9.23382534,39.4833776 7.83594152,39.7570249 L11.0025153,33.7570249 Z" id="Triangle-Copy" fill="#D48E15" transform="translate(11.012483, 36.757025) scale(-1, -1) rotate(45.000000) translate(-11.012483, -36.757025) "></path>
        <path d="M24.0041599,42.205844 L25.2614365,44.5732179 C24.776155,44.5240856 24.3556558,44.5 24,44.5 C23.6475521,44.5 23.2326969,44.523622 22.7554951,44.5718047 L22.7554951,44.5718047 L24.0041599,42.205844 Z" id="Triangle" stroke="#D48E15" stroke-width="3" fill="url(#radialGradient-4)" transform="translate(24.012483, 42.757025) rotate(180.000000) translate(-24.012483, -42.757025) "></path>
        <path d="M5.00415992,23.205844 L6.26143647,25.5732179 C5.77615496,25.5240856 5.35565579,25.5 5,25.5 C4.64755206,25.5 4.2326969,25.523622 3.75549506,25.5718047 L3.75549506,25.5718047 L5.00415992,23.205844 Z" id="Triangle" stroke="#D48E15" stroke-width="3" fill="url(#radialGradient-4)" transform="translate(5.012483, 23.757025) rotate(-90.000000) translate(-5.012483, -23.757025) "></path>
        <path d="M43.0041599,23.205844 L44.2614365,25.5732179 C43.776155,25.5240856 43.3556558,25.5 43,25.5 C42.6475521,25.5 42.2326969,25.523622 41.7554951,25.5718047 L41.7554951,25.5718047 L43.0041599,23.205844 Z" id="Triangle" stroke="#D48E15" stroke-width="3" fill="url(#radialGradient-4)" transform="translate(43.012483, 23.757025) rotate(90.000000) translate(-43.012483, -23.757025) "></path>
        <path d="M11.0025153,8.75702494 L14.1890248,14.7570249 C12.7778505,14.4833776 11.7156807,14.346554 11.0025153,14.346554 C10.2893499,14.346554 9.23382534,14.4833776 7.83594152,14.7570249 L11.0025153,8.75702494 Z" id="Triangle-Copy" fill="#D48E15" transform="translate(11.012483, 11.757025) scale(-1, 1) rotate(46.000000) translate(-11.012483, -11.757025) "></path>
    </g>
</svg>